Introduction to auk
…
This format is efficient for storage because the checklist information isn’t duplicated, however, a single flat data frame is often required for analysis. To collapse the two data frames together use collapse_zerofill(), or call auk_zerofill() with collapse = TRUE.

## ebd_zf_df <- auk_zerofill(ebd_filtered, collapse = TRUE)
ebd_zf_df <- collapse_zerofill(ebd_zf)
class(ebd_zf_df)
#> [1] "tbl_df"     "tbl"        "data.frame"
ebd_zf_df
#> # A tibble: 168 x 34
#>    checklist_id last_edited_date country country_code state state_code county
#>    <chr>        <chr>            <chr>   <chr>        <chr> <chr>      <chr> 
#>  1 S11332512    2017-05-27 10:2… Singap… SG           Sing… SG-        <NA>  
#>  2 S13581013    2017-05-27 09:2… Singap… SG           Sing… SG-        <NA>  
#>  3 S38296538    2017-08-10 11:2… Singap… SG           Sing… SG-        <NA>  
#>  4 S38296842    2017-07-27 06:2… Singap… SG           Sing… SG-        <NA>  
#>  5 S10708009    2017-07-05 13:1… Singap… SG           Sing… SG-        <NA>  
#>  6 S10708011    2017-07-05 13:1… Singap… SG           Sing… SG-        <NA>  
#>  7 S10926976    2017-07-05 13:2… Singap… SG           Sing… SG-        <NA>  
#>  8 S10708018    2018-08-30 12:5… Singap… SG           Sing… SG-        <NA>  
#>  9 S10708012    2017-05-28 05:5… Singap… SG           Sing… SG-        <NA>  
#> 10 S16642917    2017-10-19 12:4… Singap… SG           Sing… SG-        <NA>  
#> # … with 158 more rows, and 27 more variables: county_code <chr>,
#> #   iba_code <chr>, bcr_code <int>, usfws_code <chr>, atlas_block <chr>,
#> #   locality <chr>, locality_id <chr>, locality_type <chr>, latitude <dbl>,
#> #   longitude <dbl>, observation_date <date>, time_observations_started <chr>,
#> #   observer_id <chr>, sampling_event_identifier <chr>, protocol_type <chr>,
#> #   protocol_code <chr>, project_code <chr>, duration_minutes <int>,
#> #   effort_distance_km <dbl>, effort_area_ha <dbl>, number_observers <int>,
#> #   all_species_reported <lgl>, group_identifier <chr>, trip_comments <chr>,
#> #   scientific_name <chr>, observation_count <chr>, species_observed <lgl>
…
