auk: eBird Data Extraction with AWK
…
This format is efficient for storage because the checklist information isn’t duplicated, however, a single flat data frame is often required for analysis. To collapse the two data frames together use collapse_zerofill(), or call auk_zerofill() with collapse = TRUE.

## ebd_zf_df <- auk_zerofill(ebd_filtered, collapse = TRUE)
ebd_zf_df <- collapse_zerofill(ebd_zf)
class(ebd_zf_df)
#> [1] "tbl_df"     "tbl"        "data.frame"
ebd_zf_df
#> # A tibble: 179 x 35
#>    checklist_id    last_edited_date   country country_code     state
#>           <chr>               <chr>     <chr>        <chr>     <chr>
#>  1    S23107780 2015-04-28 11:48:17 Singapore           SG Singapore
#>  2    S10926976 2015-11-18 20:52:57 Singapore           SG Singapore
#>  3    S34396450 2017-02-15 23:43:12 Singapore           SG Singapore
#>  4    S10920563 2013-10-14 16:08:49 Singapore           SG Singapore
#>  5    S18149280 2014-04-30 12:03:34 Singapore           SG Singapore
#>  6    S34396153 2017-02-15 23:13:05 Singapore           SG Singapore
#>  7    S10246206 2012-03-23 19:35:01 Singapore           SG Singapore
#>  8    S12252359 2014-05-04 10:41:45 Singapore           SG Singapore
#>  9    S17614547 2014-08-18 15:48:59 Singapore           SG Singapore
#> 10    S17604516 2014-08-18 15:48:59 Singapore           SG Singapore
#> # ... with 169 more rows, and 30 more variables: state_code <chr>,
#> #   county <chr>, county_code <chr>, iba_code <chr>, bcr_code <int>,
#> #   usfws_code <chr>, atlas_block <chr>, locality <chr>,
#> #   locality_id <chr>, locality_type <chr>, latitude <dbl>,
#> #   longitude <dbl>, observation_date <date>,
#> #   time_observations_started <chr>, observer_id <chr>, first_name <chr>,
#> #   last_name <chr>, sampling_event_identifier <chr>, protocol_type <chr>,
#> #   project_code <chr>, duration_minutes <int>, effort_distance_km <dbl>,
#> #   effort_area_ha <dbl>, number_observers <int>,
…
