Introduction to auk • auk
…
This format is efficient for storage because the checklist
information isn’t duplicated, however, a single flat data frame is often
required for analysis. To collapse the two data frames together use
collapse_zerofill(), or call auk_zerofill()
with collapse = TRUE.

## ebd_zf_df <- auk_zerofill(ebd_filtered, collapse = TRUE)
ebd_zf_df <- collapse_zerofill(ebd_zf)
class(ebd_zf_df)
#> [1] "tbl_df"     "tbl"        "data.frame"
ebd_zf_df
#> # A tibble: 131 × 38
#>    checklist_id last_edited_date    country country_code state state_code county
#>    <chr>        <chr>               <chr>   <chr>        <chr> <chr>      <chr> 
#>  1 S9843037     2022-01-13 07:47:4… Singap… SG           Sing… SG-        NA    
#>  2 S34396450    2022-01-13 07:47:4… Singap… SG           Sing… SG-        NA    
#>  3 S9589770     2023-01-31 19:39:0… Singap… SG           Sing… SG-        NA    
#>  4 S16642917    2023-01-31 19:39:0… Singap… SG           Sing… SG-        NA    
#>  5 S10410041    2013-10-14 16:08:30 Singap… SG           Sing… SG-        NA    
#>  6 S10366236    2021-04-02 03:48:3… Singap… SG           Sing… SG-        NA    
#>  7 S34396153    2021-08-03 11:08:2… Singap… SG           Sing… SG-        NA    
#>  8 S9760550     2022-03-12 04:34:1… Singap… SG           Sing… SG-        NA    
#>  9 S16899954    2022-03-02 06:47:0… Singap… SG           Sing… SG-        NA    
#> 10 S10920563    2019-08-10 00:41:22 Singap… SG           Sing… SG-        NA    
#> # ℹ 121 more rows
#> # ℹ 31 more variables: county_code <chr>, iba_code <chr>, bcr_code <int>,
#> #   usfws_code <chr>, atlas_block <chr>, locality <chr>, locality_id <chr>,
#> #   locality_type <chr>, latitude <dbl>, longitude <dbl>,
#> #   observation_date <date>, time_observations_started <chr>,
#> #   observer_id <chr>, sampling_event_identifier <chr>, protocol_type <chr>,
#> #   protocol_code <chr>, project_code <chr>, duration_minutes <int>, …
…
