Roll up eBird taxonomy to species — auk_rollup • auk
…
    Details

    When rolling observations up to species level the observed counts
are summed across any taxa that resolve to the same species. However, if
any of these taxa have a count of "X" (i.e. the observer did not enter a
count), then the rolled up record will get an "X" as well. For example, if
an observer saw 3 Myrtle and 2 Audubon Warblers, this will roll up to 5
Yellow-rumped Warblers. However, if an "X" was entered for Myrtle, this
would roll up to "X" for Yellow-rumped Warbler.

    Examples

f <- system.file("extdata/ebd-rollup-ex.txt", package = "auk")
read_ebd(f, rollup = FALSE)
#> # A tibble: 186 x 47
#>    checklist_id                       global_unique_identifier
#>           <chr>                                          <chr>
#>  1     S5303232  URN:CornellLabOfOrnithology:EBIRD:OBS74460207
#>  2     S5271028  URN:CornellLabOfOrnithology:EBIRD:OBS74039017
#>  3    S25970116 URN:CornellLabOfOrnithology:EBIRD:OBS355093798
#>  4     S5231866  URN:CornellLabOfOrnithology:EBIRD:OBS73545417
#>  5     S5276125  URN:CornellLabOfOrnithology:EBIRD:OBS74105800
#>  6     S5239452  URN:CornellLabOfOrnithology:EBIRD:OBS73638626
#>  7    S13313466 URN:CornellLabOfOrnithology:EBIRD:OBS184656248
#>  8     S5276112  URN:CornellLabOfOrnithology:EBIRD:OBS74105705
#>  9     S5230408  URN:CornellLabOfOrnithology:EBIRD:OBS73530097
#> 10     S5230409  URN:CornellLabOfOrnithology:EBIRD:OBS73530110
#> # ... with 176 more rows, and 45 more variables: last_edited_date <chr>,
#> #   taxonomic_order <dbl>, category <chr>, common_name <chr>,
#> #   scientific_name <chr>, subspecies_common_name <chr>,
#> #   subspecies_scientific_name <chr>, observation_count <chr>,
#> #   breeding_bird_atlas_code <chr>, age_sex <chr>, country <chr>,
#> #   country_code <chr>, state_province <chr>, subnational1_code <chr>,
#> #   county <chr>, subnational2_code <chr>, iba_code <chr>, bcr_code <int>,
#> #   usfws_code <chr>, atlas_block <chr>, locality <chr>, locality_id <chr>,
#> #   locality_type <chr>, latitude <dbl>, longitude <dbl>,
…
