Filter observations to repeat visits for hierarchical modeling — filter_repeat_visits • auk
…
    Other modeling:
format_unmarked_occu()

    Examples

# read and zero-fill the ebd data
f_ebd <- system.file("extdata/zerofill-ex_ebd.txt", package = "auk")
f_smpl <- system.file("extdata/zerofill-ex_sampling.txt", package = "auk")
# data must be for a single species
ebd_zf <- auk_zerofill(x = f_ebd, sampling_events = f_smpl,
                       species = "Collared Kingfisher",
                       collapse = TRUE)
filter_repeat_visits(ebd_zf, n_days = 30)
#> # A tibble: 259 × 44
#>    site          closure_id n_observations checklist_id last_edited_date country
#>    <chr>         <chr>               <int> <chr>        <chr>            <chr>  
#>  1 L1055540_obs… 2012-2                  2 S49291608    2023-01-31 19:3… Singap…
#>  2 L1055540_obs… 2012-2                  2 S49291611    2025-10-08 20:3… Singap…
#>  3 L1361109_obs… 2012-0                 10 S9502932     2012-03-20 03:2… Singap…
#>  4 L1361109_obs… 2012-0                 10 S9598863     2024-05-08 04:1… Singap…
#>  5 L1361109_obs… 2012-0                 10 S9612576     2024-05-08 04:2… Singap…
#>  6 L1361109_obs… 2012-0                 10 S9628006     2024-05-08 04:2… Singap…
#>  7 L1361109_obs… 2012-0                 10 S9635686     2024-05-08 04:2… Singap…
#>  8 L1361109_obs… 2012-0                 10 S9640246     2024-05-08 04:2… Singap…
#>  9 L1361109_obs… 2012-0                 10 S9664008     2024-05-08 04:3… Singap…
#> 10 L1361109_obs… 2012-0                 10 S9671189     2024-05-08 04:3… Singap…
#> # ℹ 249 more rows
#> # ℹ 38 more variables: country_code <chr>, state <chr>, state_code <chr>,
#> #   county <chr>, county_code <chr>, iba_code <chr>, bcr_code <int>,
#> #   usfws_code <chr>, atlas_block <chr>, locality <chr>, locality_id <chr>,
#> #   locality_type <chr>, latitude <dbl>, longitude <dbl>,
#> #   observation_date <date>, time_observations_started <chr>,
#> #   observer_id <chr>, observer_orcid_id <chr>, …
…
