Process eBird bar chart data — process_barcharts • auk
…
# the sample sizes for each week can be access with
attr(barcharts, "sample_sizes")
#> # A tibble: 48 × 3
#>    month  week n_checklists
#>    <chr> <int>        <int>
#>  1 jan       1            0
#>  2 jan       2            0
#>  3 jan       3            2
#>  4 jan       4           17
#>  5 feb       1           12
#>  6 feb       2            3
#>  7 feb       3            6
#>  8 feb       4            3
#>  9 mar       1            3
#> 10 mar       2            3
#> # ℹ 38 more rows

# bar charts include data for non-species taxa
# use category to filter to only species
barcharts[barcharts$category == "species", ]
#> # A tibble: 5,376 × 8
#>    species_code common_name      scientific_name category month  week
#>    <chr>        <chr>            <chr>           <chr>    <chr> <int>
#>  1 bahgoo       Bar-headed Goose Anser indicus   species  jan       1
#>  2 bahgoo       Bar-headed Goose Anser indicus   species  jan       2
#>  3 bahgoo       Bar-headed Goose Anser indicus   species  jan       3
#>  4 bahgoo       Bar-headed Goose Anser indicus   species  jan       4
#>  5 bahgoo       Bar-headed Goose Anser indicus   species  feb       1
#>  6 bahgoo       Bar-headed Goose Anser indicus   species  feb       2
#>  7 bahgoo       Bar-headed Goose Anser indicus   species  feb       3
#>  8 bahgoo       Bar-headed Goose Anser indicus   species  feb       4
#>  9 bahgoo       Bar-headed Goose Anser indicus   species  mar       1
#> 10 bahgoo       Bar-headed Goose Anser indicus   species  mar       2
#> # ℹ 5,366 more rows
#> # ℹ 2 more variables: detection_frequency <dbl>, n_detections <dbl>
…
