Read an EBD file — read_ebd • auk
…
read_sampling(auk_ebd): auk_ebd object output from auk_filter(). Must have
had a sampling event data file set in the original call to auk_ebd().

read_sampling(auk_sampling): auk_sampling object output from auk_filter().

    See also

    Other import:
auk_zerofill()

    Examples

f <- system.file("extdata/ebd-sample.txt", package = "auk")
read_ebd(f)
#> # A tibble: 392 × 51
#>    checklist_id global_unique_identi…¹ last_edited_date taxonomic_order category
#>    <chr>        <chr>                  <chr>                      <dbl> <chr>   
#>  1 G1158137     URN:CornellLabOfOrnit… 2025-10-09 04:1…           21181 species 
#>  2 G1248339     URN:CornellLabOfOrnit… 2023-10-24 20:2…           21233 species 
#>  3 G1277458     URN:CornellLabOfOrnit… 2025-10-20 12:2…           21233 species 
#>  4 G1277459     URN:CornellLabOfOrnit… 2021-06-19 16:1…           21233 species 
#>  5 G1277523     URN:CornellLabOfOrnit… 2025-10-20 12:1…           21233 species 
#>  6 G1351311     URN:CornellLabOfOrnit… 2022-07-29 00:5…           21181 species 
#>  7 G138493      URN:CornellLabOfOrnit… 2023-11-30 12:3…           21233 species 
#>  8 G1402887     URN:CornellLabOfOrnit… 2020-07-05 14:1…           21233 species 
#>  9 G143641      URN:CornellLabOfOrnit… 2021-04-01 18:2…           21233 species 
#> 10 G144144      URN:CornellLabOfOrnit… 2019-03-29 15:0…           21181 species 
#> # ℹ 382 more rows
#> # ℹ abbreviated name: ¹​global_unique_identifier
#> # ℹ 46 more variables: taxon_concept_id <chr>, common_name <chr>,
#> #   scientific_name <chr>, exotic_code <chr>, observation_count <chr>,
#> #   breeding_code <chr>, breeding_category <chr>, behavior_code <chr>,
#> #   age_sex <chr>, country <chr>, country_code <chr>, state <chr>,
#> #   state_code <chr>, county <chr>, county_code <chr>, iba_code <chr>, …
…
